{
  "role_epg": {
    "all_hosts": {
      "/ssss/sss.txt": {
        "edit_1": {
          "edit_type": "txt",
          "search_pattern": "ffff",
          "replace_pattern": "dddd",
          "service_restart": "/etc/init.d/httpd restart"
        },
        "edit_2": {
          "edit_type": "txt",
          "search_pattern": "1111",
          "replace_pattern": "2222",
          "service_restart": "/etc/init.d/httpd restart"
        }
      },
      "/ssss/1111.txt": {
        "edit_1": {
          "edit_type": "txt",
          "search_pattern": "ffff",
          "replace_pattern": "dddd",
          "service_restart": "/etc/init.d/httpd restart"
        },
        "edit_2": {
          "edit_type": "txt",
          "search_pattern": "1111",
          "replace_pattern": "2222",
          "service_restart": "/etc/init.d/httpd restart"
        }
      }
    },
    "hostname1": {
      "/yy/yy.txt": {
        "edit_1": {
          "edit_type": "txt",
          "search_pattern": "ffff",
          "replace_pattern": "dddd",
          "service_restart": "/etc/init.d/httpd restart"
        }
      },
      "/kk/kk.txt": {
        "edit_1": {
          "edit_type": "txt",
          "search_pattern": "ffff",
          "replace_pattern": "dddd",
          "service_restart": "/etc/init.d/httpd restart"
        },
        "edit_2": {
          "edit_type": "txt",
          "search_pattern": "1111",
          "replace_pattern": "2222",
          "service_restart": "/etc/init.d/httpd restart"
        },
        "edit_3": {
          "edit_type": "txt",
          "search_pattern": "1111",
          "replace_pattern": "2222",
          "service_restart": "/etc/init.d/httpd restart"
        }

      }
    }
  }
}
